Arm2StartingTime Arm2EndTime Arm2RunNumber
1663974355.932465 1663974888.804901 80262
1663974890.34223 1663975462.483942 80263
1663975464.220797 1663976025.556316 80264
1663976027.12194 1663976556.770886 80265
1663976558.304872 1663976950.837948 80266
1663977032.562046 1663977607.990043 80268
1663977610.497502 1663978186.752172 80269
1663978188.313368 1663978759.238638 80270
1663978760.786666 1663979353.481597 80271
1663979355.013186 1663979931.186103 80272
1663979932.748157 1663980506.078966 80273
1663980507.609063 1663981094.308346 80274
1663981095.818609 1663981669.983467 80275
1663981672.752837 1663982244.341882 80276
1663982245.851899 1663982827.780515 80277
1663982829.350089 1663983404.491327 80278
1663983406.046817 1663983994.767885 80279
1663983996.288589 1663984577.907603 80280
1663984579.420099 1663985160.134608 80281
1663985161.649189 1663985746.098324 80282
1663985747.6487 1663986315.328787 80283
1663986316.881531 1663986889.927976 80284
1663986891.437924 1663987471.706405 80285
1663987473.513035 1663988061.902624 80286
1663988063.430799 1663988649.871555 80287
1663988651.400614 1663989233.660791 80288
1663989235.443121 1663989807.550875 80289
1663989809.064309 1663990387.491849 80290
1663990389.278968 1663990962.778086 80291
1663990964.296645 1663991548.994958 80292
1663991551.772659 1663992140.731571 80293
1663992142.253796 1663992724.981335 80294
1663992726.746085 1663993301.813772 80295
1663993303.344722 1663993871.939301 80296
1663993873.753546 1663994443.180729 80297
1663994444.744592 1663995019.08252 80298
1663995020.600159 1663995606.462098 80299
1663995608.234738 1663996190.70116 80300
1663996192.208587 1663996757.565271 80301
1663996759.138292 1663997329.997526 80302
1663997331.563203 1663997901.129386 80303
1663997902.636268 1663998474.48057 80304
1663998476.001395 1663999058.995062 80305
1663999061.756062 1663999644.405423 80306
1663999645.906666 1664000239.108074 80307
1664000240.660844 1664000812.731082 80308
1664000814.258307 1664001388.727755 80309
1664001390.247056 1664001963.815676 80310
1664001965.363827 1664002538.848138 80311
1664002540.36764 1664003113.459515 80312
1664003115.012599 1664003688.999916 80313
1664003690.52911 1664004263.857261 80314
1664004265.378918 1664004846.263697 80315
1664004847.788657 1664005419.250397 80316
1664005420.933648 1664005996.973069 80317
1664005999.741862 1664006577.359006 80318
1664006578.87741 1664007153.367645 80319
1664007154.9031 1664007729.743783 80320
1664007731.265002 1664008309.377919 80321
1664008310.89276 1664008888.503738 80322
1664008890.063506 1664009470.376452 80323
1664009471.89121 1664010048.350199 80324
1664010049.903032 1664010628.021376 80325
1664010629.543954 1664011206.726668 80326
1664011208.235408 1664011789.868922 80327
1664011791.437939 1664012372.128605 80328
1664012373.65486 1664012953.106557 80329
1664012954.631284 1664013532.338017 80330
1664013534.270851 1664014114.873988 80331
1664014116.400016 1664014694.551043 80332
1664014696.095775 1664015274.196825 80333
1664015275.998358 1664015855.396137 80334
1664015856.934238 1664016434.888615 80335
1664016436.397025 1664017013.602717 80336
1664017015.117415 1664017593.35111 80337
1664017594.94809 1664018166.982186 80338
1664018168.770033 1664018744.250512 80339
1664018745.763305 1664019323.389119 80340
1664019324.907101 1664019836.323576 80341
1664020544.893583 1664021121.563614 80344
1664021123.333916 1664021699.518656 80345
1664021701.059479 1664022276.500059 80346
1664022998.89527 1664023555.925778 80351
1664023557.467095 1664024116.671128 80352
1664024118.208838 1664024676.735889 80353
1664024678.242065 1664025238.292689 80354
1664025239.804467 1664025799.346319 80355
1664025800.900108 1664026365.23273 80356
1664026366.747689 1664026923.980008 80357
1664026926.622936 1664027485.501969 80358
1664027487.011757 1664028047.109491 80359
1664028048.618533 1664028609.904811 80360
1664028611.455647 1664029170.133037 80361
1664029171.678118 1664029731.385325 80362
1664029732.936851 1664030294.866522 80363
1664030296.416846 1664030857.15723 80364
1664030858.678408 1664031418.093752 80365
1664031419.615561 1664031982.072757 80366
1664031983.586776 1664032542.903872 80367
1664032544.458193 1664033104.061794 80368
1664033105.588965 1664033665.043604 80369
1664033666.583236 1664034239.318807 80370
1664034240.839865 1664034803.020643 80371
1664034804.554779 1664035247.41506 80372
1664038172.739634 1664038726.653544 80377
1664038728.163826 1664039310.101358 80378
1664039311.65752 1664039888.600131 80379
1664039890.119536 1664040445.45345 80380
1664040446.973545 1664041000.404465 80381
1664041001.926133 1664041556.030511 80382
1664041557.554194 1664042111.222479 80383
1664042112.762613 1664042666.527223 80384
1664042668.050073 1664043224.931143 80385
1664043226.45077 1664043780.905183 80386
1664043782.422091 1664044339.008866 80387
1664044340.557417 1664044894.394293 80388
1664044896.168127 1664045451.528421 80389
1664045453.043336 1664046005.839776 80390
1664046007.352985 1664046561.65395 80391
1664046563.177049 1664047112.376465 80392
1664047114.160566 1664047657.161457 80393
1664047658.654669 1664048192.456055 80394
1664048193.979424 1664048740.625852 80395
1664048742.142075 1664049303.026235 80396
1664054283.663526 1664054834.284924 80401
1664054835.799601 1664055387.08258 80402
1664055388.601837 1664055940.887682 80403
1664055942.694326 1664056496.704554 80404
1664056498.224382 1664057050.674333 80405
1664057052.216801 1664057602.216012 80406
1664057603.740973 1664058151.904751 80407
1664058153.433519 1664058707.181255 80408
1664058708.706157 1664059260.176089 80409
1664059261.68341 1664059813.491342 80410
1664059815.013234 1664060368.458984 80411
1664060369.984533 1664060929.872547 80412
1664060931.412464 1664061482.696803 80413
1664061484.241243 1664062038.380673 80414
1664062040.133772 1664062594.407993 80415
1664062595.926388 1664063149.982317 80416
1664063152.735489 1664063706.119921 80417
1664063707.635131 1664064258.732395 80418
1664064260.210167 1664064816.40804 80419
1664064817.924691 1664065375.377801 80420
1664065376.899744 1664065933.075045 80421
1664065934.601603 1664066489.54835 80422
1664066491.336508 1664067044.854564 80423
1664067046.382887 1664067599.814282 80424
1664067601.337883 1664068155.631352 80425
1664068157.163942 1664068713.083018 80426
1664068714.593386 1664069273.249903 80427
1664069274.799809 1664069834.980009 80428
1664069837.789766 1664070394.381543 80429
1664070395.909697 1664070952.14302 80430
1664070953.669377 1664071386.667367 80431
1664071736.541343 1664072313.075306 80434
1664072314.5988 1664072889.205074 80435
1664072890.747243 1664073467.637882 80436
1664073469.147239 1664074048.195413 80437
1664074049.766772 1664074622.800862 80438
1664074624.315443 1664075196.581934 80439
1664075198.103522 1664075771.617575 80440
1664075773.148568 1664076346.157115 80441
1664076347.667335 1664076918.437776 80442
1664076919.951561 1664077497.364897 80443
1664077498.923394 1664078073.472315 80444
1664078074.985952 1664078644.255085 80445
1664078645.776737 1664079215.551096 80446
1664079217.089008 1664079790.09501 80447
1664079791.602473 1664080367.172282 80448
1664080368.699111 1664080944.997904 80449
1664080947.745366 1664081521.998663 80450
1664081523.523231 1664082097.46572 80451
1664082099.007989 1664082667.372967 80452
1664082668.911949 1664083240.129137 80453
1664083241.680691 1664083816.171332 80454
1664083817.713438 1664084391.826375 80455
1664084393.333136 1664084962.259368 80456
1664084963.788581 1664085539.597199 80457
1664085541.123888 1664086115.934141 80458
1664086117.747429 1664086690.620123 80459
1664086692.143432 1664087262.738115 80460
1664087264.253205 1664087833.08803 80461
1664087834.617639 1664088405.992051 80462
1664088408.752145 1664088980.589256 80463
1664088982.134716 1664089554.624217 80464
1664092692.455884 1664093261.546942 80471
1664093263.065825 1664093856.503416 80472
1664093858.037593 1664094438.907601 80473
1664094440.42116 1664095011.061182 80474
1664095012.842113 1664095580.457214 80475
1664095582.25509 1664096162.49229 80476
1664096164.000488 1664096741.905151 80477
1664096743.416567 1664097331.898044 80478
1664097333.771252 1664097909.48592 80479
1664097911.010395 1664098482.465226 80480
1664098483.987518 1664099061.621846 80481
1664099063.139635 1664099634.856698 80482
1664099636.382022 1664100209.423521 80483
1664100210.95869 1664100783.251256 80484
1664100784.787582 1664101355.676281 80485
1664101357.187594 1664101935.715301 80486
1664101937.249783 1664102508.237859 80487
1664102509.782824 1664103083.542922 80488
1664103085.09543 1664103655.470499 80489
1664103656.977287 1664104230.804315 80490
1664104232.322301 1664104805.347353 80491
1664104806.880106 1664105381.196084 80492
1664105382.704215 1664105956.012965 80493
1664105957.555006 1664106519.825926 80494
1664106521.340914 1664107085.300991 80495
1664107086.823208 1664107659.244203 80496
1664107660.789956 1664108233.846493 80497
1664108235.368608 1664108807.102628 80498
1664108808.935287 1664109379.46104 80499
1664109380.969424 1664109950.593652 80500
1664109952.129215 1664110539.184611 80501
1664110540.683834 1664111139.169468 80502
1664111140.678905 1664111715.545326 80503
1664111717.011383 1664112288.645015 80504
1664112290.159994 1664112857.986245 80505
1664114421.520258 1664114989.856808 80510
1664114991.355278 1664115559.684636 80511
1664115561.206235 1664116129.384862 80512
1664116130.906852 1664116698.685854 80513
1664116700.207439 1664117268.721398 80514
1664117270.256815 1664117839.684007 80515
1664117841.199439 1664118410.932125 80516
1664118412.464474 1664118980.500356 80517
1664118982.299923 1664119549.574312 80518
1664119551.386248 1664120107.639017 80519
1664120109.192977 1664120461.836171 80520
1664121359.620763 1664121897.55921 80523
1664121899.379346 1664122430.485241 80524
1664122432.037532 1664122964.087562 80525
1664122965.599858 1664123500.786725 80526
1664123502.31758 1664124045.172413 80527
1664124046.693598 1664124580.71284 80528
1664124582.271109 1664125122.667012 80529
1664125124.51112 1664125608.731102 80530
1664128382.681212 1664128934.721764 80536
1664128936.247125 1664129491.410629 80537
1664129492.92598 1664130048.092997 80538
1664130049.620361 1664130610.185168 80539
1664130611.776788 1664131170.588264 80540
1664131172.131428 1664131735.824303 80541
1664131737.331748 1664132295.69891 80542
1664132297.224978 1664132851.858124 80543
1664132853.365795 1664133399.62332 80544
1664133401.155553 1664133947.573622 80545
1664133949.033117 1664134496.531658 80546
1664134498.075056 1664135043.506778 80547
1664135045.033112 1664135598.568236 80548
1664136604.065318 1664137141.596207 80552
1664137142.919159 1664137694.263448 80553
1664137695.806808 1664138255.288411 80554
1664138256.892585 1664138816.264757 80555
1664138817.894026 1664139372.538612 80556
1664139374.181524 1664139933.847769 80557
1664139935.494002 1664140494.383354 80558
1664140495.891275 1664141055.116691 80559
1664141056.674894 1664141610.237102 80560
1664141611.782392 1664142163.246574 80561
1664142164.75534 1664142717.368625 80562
1664142718.891641 1664143263.282711 80563
1664143264.816934 1664143807.017451 80564
1664143808.583583 1664144355.368744 80565
1664144356.913021 1664144902.854844 80566
1664144904.391344 1664145447.269574 80567
1664145448.794207 1664145993.584992 80568
1664145995.135378 1664146545.188174 80569
1664146546.71381 1664147104.389044 80570
1664147105.942516 1664147664.655999 80571
1664147666.151196 1664148210.438405 80572
1664148211.959289 1664148758.531899 80573
1664148760.087869 1664149304.107997 80574
1664149305.627517 1664149848.912214 80575
1664149850.473979 1664150402.76799 80576
1664150404.567351 1664150959.472541 80577
1664150961.023724 1664151518.807006 80578
1664151520.330546 1664152073.44814 80579
1664152074.957991 1664152623.325701 80580
1664152624.896321 1664153171.736565 80581
1664153173.258649 1664153719.681767 80582
1664153721.15592 1664154274.475821 80583
1664154276.000942 1664154824.155932 80584
1664154825.685316 1664155371.446851 80585
1664155373.252883 1664155933.045388 80586
1664155934.608176 1664156491.89801 80587
1664156493.400729 1664157048.576072 80588
1664157050.10554 1664157606.910546 80589
1664157608.43411 1664158166.696216 80590
1664158168.250542 1664158727.743374 80591
1664158729.279029 1664159277.849032 80592
1664159279.370948 1664159836.148191 80593
1664159837.689804 1664160393.793328 80594
1664160395.31404 1664160954.234953 80595
1664160955.780228 1664161516.529302 80596
1664161518.076216 1664162076.748548 80597
1664162078.278868 1664162628.749983 80598
1664162630.291183 1664163173.241697 80599
1664163174.786023 1664163719.119653 80600
1664163720.904128 1664164268.099956 80601
1664164269.605678 1664164814.48654 80602
1664164816.003545 1664165362.761144 80603
1664165364.2673 1664165911.175516 80604
1664165912.69736 1664166461.268111 80605
1664166462.851593 1664167009.980506 80606
1664167012.75215 1664167560.64437 80607
1664167562.172783 1664168110.546616 80608
1664168112.082723 1664168686.745436 80609
1664168688.287374 1664169234.977012 80610
1664169236.795337 1664169781.320192 80611
1664172309.628543 1664172857.331983 80617
1664172858.862424 1664173401.944892 80618
1664173403.470147 1664173946.735769 80619
1664173948.256332 1664174490.029032 80620
1664174491.586043 1664175035.559344 80621
1664175037.080452 1664175579.225693 80622
1664175580.74441 1664176121.970507 80623
1664176124.760869 1664176672.729523 80624
1664176674.254562 1664177218.534848 80625
1664177220.059012 1664177759.81688 80626
1664210385.208874 1664210678.147756 80635
1664210696.134649 1664211270.328602 80636
1664211271.894335 1664211847.980909 80637
1664211850.743155 1664212427.107248 80638
1664212428.622257 1664213004.400673 80639
1664213005.924079 1664213583.116964 80640
1664213584.659376 1664214155.947994 80641
1664214157.464748 1664214731.93134 80642
1664214733.454995 1664215309.997506 80643
1664215312.757005 1664215887.486895 80644
1664215888.999963 1664216465.975577 80645
1664216468.744168 1664217030.425769 80646
